%YAML 1.1
%TAG !u! tag:unity3d.com,2011:
--- !u!74 &7400000
AnimationClip:
  m_ObjectHideFlags: 0
  m_CorrespondingSourceObject: {fileID: 0}
  m_PrefabInternal: {fileID: 0}
  m_Name: Cloud
  serializedVersion: 6
  m_Legacy: 0
  m_Compressed: 0
  m_UseHighQualityCurve: 1
  m_RotationCurves: []
  m_CompressedRotationCurves: []
  m_EulerCurves: []
  m_PositionCurves: []
  m_ScaleCurves: []
  m_FloatCurves: []
  m_PPtrCurves:
  - curve:
    - time: 0
      value: {fileID: 21300000, guid: 9cd304112c05cb9468d514959438bc64, type: 3}
    - time: 0.083333336
      value: {fileID: 21300000, guid: b69549d9c7c327d4fb270d259c1c2e35, type: 3}
    - time: 0.16666667
      value: {fileID: 21300000, guid: e9c68fb2a3c0e5243a74e0fb387f5c8b, type: 3}
    - time: 0.25
      value: {fileID: 21300000, guid: b5c4c6909fa9042418db47e30d299bfa, type: 3}
    - time: 0.33333334
      value: {fileID: 21300000, guid: 7b242111f70b90a408707113a4c2029a, type: 3}
    - time: 0.41666666
      value: {fileID: 21300000, guid: 34b50c48fddab0e408af38a796bdbfa5, type: 3}
    - time: 0.5
      value: {fileID: 21300000, guid: 22698818931ed19438675ea05e3e9156, type: 3}
    - time: 0.5833333
      value: {fileID: 21300000, guid: 90dd751b07b3df64192ab1d58beb369a, type: 3}
    - time: 0.6666667
      value: {fileID: 21300000, guid: 7fa83b93fc679ba4483885539b65f374, type: 3}
    - time: 0.75
      value: {fileID: 21300000, guid: fad8a62b11caad7479b1e22c2fdeb4ad, type: 3}
    - time: 0.8333333
      value: {fileID: 21300000, guid: 34134343b878a594c8dd562778e7e5a4, type: 3}
    - time: 0.9166667
      value: {fileID: 21300000, guid: c114f1a33f930a341b70f042c198c04b, type: 3}
    - time: 1
      value: {fileID: 21300000, guid: c7932413b524c8148849028329695aa9, type: 3}
    - time: 1.0833334
      value: {fileID: 21300000, guid: f738de6af875b8848920caea8fec0a0d, type: 3}
    - time: 1.1666666
      value: {fileID: 21300000, guid: d2d0d4a2beb50f34db5bdc92a6df0fa1, type: 3}
    - time: 1.25
      value: {fileID: 21300000, guid: 8b41c16a15333fd49be17f59cb1eae8b, type: 3}
    - time: 1.3333334
      value: {fileID: 21300000, guid: deb7871280cd3d14aa6075d83644e86b, type: 3}
    - time: 1.4166666
      value: {fileID: 21300000, guid: 5d9f55f57fde82d49b20ecf129a7a718, type: 3}
    - time: 1.5
      value: {fileID: 21300000, guid: 4729f1f0d0d2d2e4d950e86c7f707049, type: 3}
    - time: 1.5833334
      value: {fileID: 21300000, guid: e2eef3fb6757e714d9a2138753be3d91, type: 3}
    attribute: m_Sprite
    path: 
    classID: 212
    script: {fileID: 0}
  m_SampleRate: 12
  m_WrapMode: 0
  m_Bounds:
    m_Center: {x: 0, y: 0, z: 0}
    m_Extent: {x: 0, y: 0, z: 0}
  m_ClipBindingConstant:
    genericBindings:
    - serializedVersion: 2
      path: 0
      attribute: 0
      script: {fileID: 0}
      typeID: 212
      customType: 23
      isPPtrCurve: 1
    pptrCurveMapping:
    - {fileID: 21300000, guid: 9cd304112c05cb9468d514959438bc64, type: 3}
    - {fileID: 21300000, guid: b69549d9c7c327d4fb270d259c1c2e35, type: 3}
    - {fileID: 21300000, guid: e9c68fb2a3c0e5243a74e0fb387f5c8b, type: 3}
    - {fileID: 21300000, guid: b5c4c6909fa9042418db47e30d299bfa, type: 3}
    - {fileID: 21300000, guid: 7b242111f70b90a408707113a4c2029a, type: 3}
    - {fileID: 21300000, guid: 34b50c48fddab0e408af38a796bdbfa5, type: 3}
    - {fileID: 21300000, guid: 22698818931ed19438675ea05e3e9156, type: 3}
    - {fileID: 21300000, guid: 90dd751b07b3df64192ab1d58beb369a, type: 3}
    - {fileID: 21300000, guid: 7fa83b93fc679ba4483885539b65f374, type: 3}
    - {fileID: 21300000, guid: fad8a62b11caad7479b1e22c2fdeb4ad, type: 3}
    - {fileID: 21300000, guid: 34134343b878a594c8dd562778e7e5a4, type: 3}
    - {fileID: 21300000, guid: c114f1a33f930a341b70f042c198c04b, type: 3}
    - {fileID: 21300000, guid: c7932413b524c8148849028329695aa9, type: 3}
    - {fileID: 21300000, guid: f738de6af875b8848920caea8fec0a0d, type: 3}
    - {fileID: 21300000, guid: d2d0d4a2beb50f34db5bdc92a6df0fa1, type: 3}
    - {fileID: 21300000, guid: 8b41c16a15333fd49be17f59cb1eae8b, type: 3}
    - {fileID: 21300000, guid: deb7871280cd3d14aa6075d83644e86b, type: 3}
    - {fileID: 21300000, guid: 5d9f55f57fde82d49b20ecf129a7a718, type: 3}
    - {fileID: 21300000, guid: 4729f1f0d0d2d2e4d950e86c7f707049, type: 3}
    - {fileID: 21300000, guid: e2eef3fb6757e714d9a2138753be3d91, type: 3}
  m_AnimationClipSettings:
    serializedVersion: 2
    m_AdditiveReferencePoseClip: {fileID: 0}
    m_AdditiveReferencePoseTime: 0
    m_StartTime: 0
    m_StopTime: 1.6666667
    m_OrientationOffsetY: 0
    m_Level: 0
    m_CycleOffset: 0
    m_HasAdditiveReferencePose: 0
    m_LoopTime: 1
    m_LoopBlend: 0
    m_LoopBlendOrientation: 0
    m_LoopBlendPositionY: 0
    m_LoopBlendPositionXZ: 0
    m_KeepOriginalOrientation: 0
    m_KeepOriginalPositionY: 1
    m_KeepOriginalPositionXZ: 0
    m_HeightFromFeet: 0
    m_Mirror: 0
  m_EditorCurves: []
  m_EulerEditorCurves: []
  m_HasGenericRootTransform: 0
  m_HasMotionFloatCurves: 0
  m_GenerateMotionCurves: 0
  m_Events: []
